<?xml version="1.0" encoding="UTF-8" standalone="no"?>
<!-- Generator: Adobe Illustrator 26.0.2, SVG Export Plug-In . SVG Version: 6.00 Build 0)  -->

<svg
   version="1.1"
   id="Layer_1"
   x="0px"
   y="0px"
   viewBox="0 0 984.5 382.8"
   style="enable-background:new 0 0 984.5 382.8;"
   xml:space="preserve"
   sodipodi:docname="LAS2022-WebBanner-nodate.svg"
   inkscape:version="1.2 (dc2aedaf03, 2022-05-15)"
   xmlns:inkscape="http://www.inkscape.org/namespaces/inkscape"
   xmlns:sodipodi="http://sodipodi.sourceforge.net/DTD/sodipodi-0.dtd"
   xmlns:xlink="http://www.w3.org/1999/xlink"
   xmlns="http://www.w3.org/2000/svg"
   xmlns:svg="http://www.w3.org/2000/svg"><defs
   id="defs1417" /><sodipodi:namedview
   id="namedview1415"
   pagecolor="#ffffff"
   bordercolor="#666666"
   borderopacity="1.0"
   inkscape:showpageshadow="2"
   inkscape:pageopacity="0.0"
   inkscape:pagecheckerboard="0"
   inkscape:deskcolor="#d1d1d1"
   showgrid="false"
   inkscape:zoom="1.26968"
   inkscape:cx="492.25"
   inkscape:cy="191.7806"
   inkscape:window-width="1200"
   inkscape:window-height="1850"
   inkscape:window-x="0"
   inkscape:window-y="0"
   inkscape:window-maximized="1"
   inkscape:current-layer="Layer_1" />
<style
   type="text/css"
   id="style2">
	.st0{fill:#FF4E00;}
	.st1{fill:#DD324B;}
	.st2{fill:#6FEEC9;}
	.st3{fill:#FFF200;}
	.st4{fill:none;}
	.st5{fill:#FFFFFF;}
	.st6{fill:#121B86;}
	.st7{fill:#51B1D5;}
	.st8{display:none;}
	.st9{display:inline;}
	.st10{fill:#982C7E;}
	.st11{clip-path:url(#SVGID_00000084523745762674828020000002688729352908523396_);}
	.st12{clip-path:url(#SVGID_00000029026995857361336730000003709499616773114813_);}
	.st13{fill:none;stroke:#51B1D5;stroke-width:2;stroke-miterlimit:10;}
	.st14{clip-path:url(#SVGID_00000125574646440509565110000008952240162747924409_);}
	.st15{clip-path:url(#SVGID_00000171705817864680095470000003656005848623096467_);}
	.st16{opacity:0.998;fill:none;stroke:#FFF200;stroke-width:3;enable-background:new    ;}
	.st17{fill:#121B86;stroke:#FFF200;stroke-width:3;stroke-miterlimit:10;}
	.st18{fill:#121B86;stroke:#6FEEC9;stroke-width:5;stroke-miterlimit:10;}
	.st19{fill:none;stroke:#FFF200;stroke-width:3;stroke-miterlimit:10;}
	.st20{fill:#DF36C5;}
	.st21{clip-path:url(#SVGID_00000038396332635699945100000010263419139402176165_);}
	.st22{fill:none;stroke:#121B86;stroke-width:3;stroke-miterlimit:10;}
	.st23{clip-path:url(#SVGID_00000136407382143275724690000014565709452449953177_);}
	.st24{clip-path:url(#SVGID_00000031926410139347979430000014480151166874374544_);fill:#982C7E;}
	.st25{fill:#FFFFFF;stroke:#51B1D5;stroke-miterlimit:10;}
	.st26{display:inline;fill:#121B86;}
	.st27{fill:#75DD31;}
</style>
<rect
   x="-13.4"
   y="-9"
   class="st0"
   width="1010.7"
   height="400.8"
   id="rect4" />
<g
   id="g119">
	<g
   id="_x31_4_00000097467526958996288150000018106599738867641531_">
		<g
   id="g8">
			<polygon
   class="st1"
   points="795.9,16.2 795.9,3.6 745.6,3.6 745.6,-9 733,-9 733,41.4 745.6,41.4 758.2,41.4 758.2,91.7      770.7,91.7 770.7,41.4 783.3,41.4 783.3,91.7 795.9,91.7 795.9,41.4 795.9,28.8 745.6,28.8 745.6,16.2    "
   id="polygon6" />
		</g>
	</g>
	<g
   id="_x31_4_00000145765468768938391820000008480174180021034899_">
		<g
   id="g19">
			<rect
   x="795.9"
   y="79.1"
   class="st1"
   width="50.4"
   height="12.6"
   id="rect11" />
			<rect
   x="795.9"
   y="54"
   class="st2"
   width="50.4"
   height="12.6"
   id="rect13" />
			<polygon
   class="st1"
   points="896.6,16.2 896.6,3.6 846.3,3.6 846.3,-9 833.7,-9 833.7,41.4 846.3,41.4 858.9,41.4 858.9,91.7      871.5,91.7 871.5,41.4 884,41.4 884,91.7 896.6,91.7 896.6,41.4 896.6,28.8 846.3,28.8 846.3,16.2    "
   id="polygon15" />
			<rect
   x="808.5"
   y="-9"
   class="st1"
   width="12.6"
   height="50.4"
   id="rect17" />
		</g>
	</g>
	<g
   id="_x31_4_00000012440841551028018680000007211573346147145356_">
		<g
   id="g30">
			<rect
   x="795.9"
   y="179.8"
   class="st1"
   width="50.4"
   height="12.6"
   id="rect22" />
			<rect
   x="795.9"
   y="154.7"
   class="st1"
   width="50.4"
   height="12.6"
   id="rect24" />
			<polygon
   class="st1"
   points="896.6,116.9 896.6,104.3 846.3,104.3 846.3,91.7 833.7,91.7 833.7,142.1 846.3,142.1 858.9,142.1      858.9,192.4 871.5,192.4 871.5,142.1 884,142.1 884,192.4 896.6,192.4 896.6,142.1 896.6,129.5 846.3,129.5 846.3,116.9    "
   id="polygon26" />
			<rect
   x="808.5"
   y="91.7"
   class="st1"
   width="12.6"
   height="50.4"
   id="rect28" />
		</g>
	</g>
	<g
   id="_x31_4_00000069385489309937290110000015872083734449612691_">
		<g
   id="g41">
			<rect
   x="896.6"
   y="79.1"
   class="st1"
   width="50.4"
   height="12.6"
   id="rect33" />
			<rect
   x="896.6"
   y="54"
   class="st1"
   width="50.4"
   height="12.6"
   id="rect35" />
			<polygon
   class="st1"
   points="997.3,16.2 997.3,3.6 947,3.6 947,-9 934.4,-9 934.4,41.4 947,41.4 959.6,41.4 959.6,91.7      972.2,91.7 972.2,41.4 984.7,41.4 984.7,91.7 997.3,91.7 997.3,41.4 997.3,28.8 947,28.8 947,16.2    "
   id="polygon37" />
			<rect
   x="909.2"
   y="-9"
   class="st3"
   width="12.6"
   height="50.4"
   id="rect39" />
		</g>
	</g>
	<g
   id="_x31_4_00000075878813335366048300000003173813997291530652_">
		<g
   id="g52">
			<rect
   x="896.6"
   y="179.8"
   class="st1"
   width="50.4"
   height="12.6"
   id="rect44" />
			<rect
   x="896.6"
   y="154.7"
   class="st1"
   width="50.4"
   height="12.6"
   id="rect46" />
			<polygon
   class="st1"
   points="997.3,116.9 997.3,104.3 947,104.3 947,91.7 934.4,91.7 934.4,142.1 947,142.1 959.6,142.1      959.6,192.4 972.2,192.4 972.2,142.1 984.7,142.1 984.7,192.4 997.3,192.4 997.3,142.1 997.3,129.5 947,129.5 947,116.9    "
   id="polygon48" />
			<rect
   x="909.2"
   y="91.7"
   class="st1"
   width="12.6"
   height="50.4"
   id="rect50" />
		</g>
	</g>
	<g
   id="_x31_4_00000113337798693255039040000016861174133115147450_">
		<g
   id="g61">
			<rect
   x="695.2"
   y="280.5"
   class="st1"
   width="50.4"
   height="12.6"
   id="rect55" />
			<rect
   x="695.2"
   y="255.4"
   class="st3"
   width="50.4"
   height="12.6"
   id="rect57" />
			<polygon
   class="st1"
   points="795.9,217.6 795.9,205 745.6,205 745.6,192.4 733,192.4 733,242.8 745.6,242.8 758.2,242.8      758.2,293.1 770.7,293.1 770.7,242.8 783.3,242.8 783.3,293.1 795.9,293.1 795.9,242.8 795.9,230.2 745.6,230.2 745.6,217.6         "
   id="polygon59" />
		</g>
	</g>
	<g
   id="_x31_4_00000049927677488510447840000008577312710498181254_">
		<g
   id="g72">
			<rect
   x="795.9"
   y="280.5"
   class="st1"
   width="50.4"
   height="12.6"
   id="rect64" />
			<rect
   x="795.9"
   y="255.4"
   class="st1"
   width="50.4"
   height="12.6"
   id="rect66" />
			<polygon
   class="st1"
   points="896.6,217.6 896.6,205 846.3,205 846.3,192.4 833.7,192.4 833.7,242.8 846.3,242.8 858.9,242.8      858.9,293.1 871.5,293.1 871.5,242.8 884,242.8 884,293.1 896.6,293.1 896.6,242.8 896.6,230.2 846.3,230.2 846.3,217.6    "
   id="polygon68" />
			<rect
   x="808.5"
   y="192.4"
   class="st1"
   width="12.6"
   height="50.4"
   id="rect70" />
		</g>
	</g>
	<g
   id="_x31_4_00000150791987901806175030000006512371098615172739_">
		<g
   id="g83">
			<rect
   x="695.2"
   y="381.2"
   class="st1"
   width="50.4"
   height="12.6"
   id="rect75" />
			<rect
   x="695.2"
   y="356.1"
   class="st1"
   width="50.4"
   height="12.6"
   id="rect77" />
			<polygon
   class="st1"
   points="795.9,318.3 795.9,305.7 745.6,305.7 745.6,293.1 733,293.1 733,343.5 745.6,343.5 758.2,343.5      758.2,393.8 770.7,393.8 770.7,343.5 783.3,343.5 783.3,393.8 795.9,393.8 795.9,343.5 795.9,330.9 745.6,330.9 745.6,318.3         "
   id="polygon79" />
			<rect
   x="707.8"
   y="293.1"
   class="st1"
   width="12.6"
   height="50.4"
   id="rect81" />
		</g>
	</g>
	<g
   id="_x31_4_00000006681490846787453580000008339281964842556596_">
		<g
   id="g94">
			<rect
   x="795.9"
   y="381.2"
   class="st1"
   width="50.4"
   height="12.6"
   id="rect86" />
			<rect
   x="795.9"
   y="356.1"
   class="st3"
   width="50.4"
   height="12.6"
   id="rect88" />
			<polygon
   class="st1"
   points="896.6,318.3 896.6,305.7 846.3,305.7 846.3,293.1 833.7,293.1 833.7,343.5 846.3,343.5 858.9,343.5      858.9,393.8 871.5,393.8 871.5,343.5 884,343.5 884,393.8 896.6,393.8 896.6,343.5 896.6,330.9 846.3,330.9 846.3,318.3    "
   id="polygon90" />
			<rect
   x="808.5"
   y="293.1"
   class="st2"
   width="12.6"
   height="50.4"
   id="rect92" />
		</g>
	</g>
	<g
   id="_x31_4_00000177466416461333237010000010132400148636222857_">
		<g
   id="g105">
			<rect
   x="896.6"
   y="280.5"
   class="st1"
   width="50.4"
   height="12.6"
   id="rect97" />
			<rect
   x="896.6"
   y="255.4"
   class="st1"
   width="50.4"
   height="12.6"
   id="rect99" />
			<polygon
   class="st1"
   points="997.3,217.6 997.3,205 947,205 947,192.4 934.4,192.4 934.4,242.8 947,242.8 959.6,242.8      959.6,293.1 972.2,293.1 972.2,242.8 984.7,242.8 984.7,293.1 997.3,293.1 997.3,242.8 997.3,230.2 947,230.2 947,217.6    "
   id="polygon101" />
			<rect
   x="909.2"
   y="192.4"
   class="st3"
   width="12.6"
   height="50.4"
   id="rect103" />
		</g>
	</g>
	<g
   id="_x31_4_00000023249549354849794120000011161833588548127674_">
		<g
   id="g116">
			<rect
   x="896.6"
   y="381.2"
   class="st1"
   width="50.4"
   height="12.6"
   id="rect108" />
			<rect
   x="896.6"
   y="356.1"
   class="st1"
   width="50.4"
   height="12.6"
   id="rect110" />
			<polygon
   class="st2"
   points="997.3,318.3 997.3,305.7 947,305.7 947,293.1 934.4,293.1 934.4,343.5 947,343.5 959.6,343.5      959.6,393.8 972.2,393.8 972.2,343.5 984.7,343.5 984.7,393.8 997.3,393.8 997.3,343.5 997.3,330.9 947,330.9 947,318.3    "
   id="polygon112" />
			<rect
   x="909.2"
   y="293.1"
   class="st1"
   width="12.6"
   height="50.4"
   id="rect114" />
		</g>
	</g>
</g>
<g
   id="g130">
	<g
   id="_x31_4_00000029027708469332060240000000393779667864252071_">
		<g
   id="g127">
			<rect
   x="594.2"
   y="381.2"
   class="st1"
   width="50.4"
   height="12.6"
   id="rect121" />
			<rect
   x="594.2"
   y="356.1"
   class="st1"
   width="50.4"
   height="12.6"
   id="rect123" />
			<polygon
   class="st1"
   points="694.9,318.3 694.9,305.7 644.6,305.7 644.6,293.1 632,293.1 632,343.5 644.6,343.5 657.2,343.5      657.2,393.8 669.8,393.8 669.8,343.5 682.3,343.5 682.3,393.8 694.9,393.8 694.9,343.5 694.9,330.9 644.6,330.9 644.6,318.3         "
   id="polygon125" />
		</g>
	</g>
</g>
<g
   id="g142">
	<defs
   id="defs133">
		<rect
   id="SVGID_00000061431401587118505590000017219365327772926117_"
   x="1097.7"
   y="-801.8"
   width="464.7"
   height="233.4" />
	</defs>
	<clipPath
   id="SVGID_00000060720848722534704560000006349376607236772792_">
		<use
   xlink:href="#SVGID_00000061431401587118505590000017219365327772926117_"
   style="overflow:visible;"
   id="use135" />
	</clipPath>
	<g
   style="clip-path:url(#SVGID_00000060720848722534704560000006349376607236772792_);"
   clip-path="url(#SVGID_00000060720848722534704560000006349376607236772792_)"
   id="g138">
	</g>
	
		<use
   xlink:href="#SVGID_00000061431401587118505590000017219365327772926117_"
   style="overflow:visible;fill:none;stroke:#121B86;stroke-width:3;stroke-miterlimit:10;"
   id="use140" />
</g>
<g
   id="g600">
	<circle
   class="st2"
   cx="-4.4"
   cy="7.4"
   r="5.4"
   id="circle144" />
	<circle
   class="st2"
   cx="12.1"
   cy="7.4"
   r="5.4"
   id="circle146" />
	<circle
   class="st2"
   cx="28.6"
   cy="7.4"
   r="5.4"
   id="circle148" />
	<circle
   class="st2"
   cx="45.1"
   cy="7.4"
   r="5.4"
   id="circle150" />
	<circle
   class="st2"
   cx="61.6"
   cy="7.4"
   r="5.4"
   id="circle152" />
	<circle
   class="st2"
   cx="78"
   cy="7.4"
   r="5.4"
   id="circle154" />
	<circle
   class="st2"
   cx="94.5"
   cy="7.4"
   r="5.4"
   id="circle156" />
	<circle
   class="st2"
   cx="111"
   cy="7.4"
   r="5.4"
   id="circle158" />
	<circle
   class="st2"
   cx="127.5"
   cy="7.3"
   r="5.4"
   id="circle160" />
	<circle
   class="st2"
   cx="144"
   cy="7.3"
   r="5.4"
   id="circle162" />
	<circle
   class="st2"
   cx="160.5"
   cy="7.3"
   r="5.4"
   id="circle164" />
	<circle
   class="st2"
   cx="176.9"
   cy="7.3"
   r="5.4"
   id="circle166" />
	<circle
   class="st2"
   cx="193.4"
   cy="7.3"
   r="5.4"
   id="circle168" />
	<circle
   class="st2"
   cx="209.9"
   cy="7.3"
   r="5.4"
   id="circle170" />
	<circle
   class="st2"
   cx="226.4"
   cy="7.3"
   r="5.4"
   id="circle172" />
	<circle
   class="st1"
   cx="242.9"
   cy="7.3"
   r="5.4"
   id="circle174" />
	<circle
   class="st2"
   cx="259.4"
   cy="7.3"
   r="5.4"
   id="circle176" />
	<circle
   class="st2"
   cx="275.8"
   cy="7.3"
   r="5.4"
   id="circle178" />
	<circle
   class="st2"
   cx="292.3"
   cy="7.3"
   r="5.4"
   id="circle180" />
	<circle
   class="st2"
   cx="308.8"
   cy="7.3"
   r="5.4"
   id="circle182" />
	<circle
   class="st2"
   cx="325.3"
   cy="7.3"
   r="5.4"
   id="circle184" />
	<circle
   class="st2"
   cx="341.8"
   cy="7.3"
   r="5.4"
   id="circle186" />
	<circle
   class="st1"
   cx="358.3"
   cy="7.3"
   r="5.4"
   id="circle188" />
	<circle
   class="st2"
   cx="374.7"
   cy="7.3"
   r="5.4"
   id="circle190" />
	<circle
   class="st2"
   cx="3.8"
   cy="21.4"
   r="5.4"
   id="circle192" />
	<circle
   class="st2"
   cx="20.3"
   cy="21.4"
   r="5.4"
   id="circle194" />
	<circle
   class="st2"
   cx="36.7"
   cy="21.4"
   r="5.4"
   id="circle196" />
	<circle
   class="st2"
   cx="53.2"
   cy="21.4"
   r="5.4"
   id="circle198" />
	<circle
   class="st2"
   cx="69.7"
   cy="21.4"
   r="5.4"
   id="circle200" />
	<circle
   class="st2"
   cx="86.2"
   cy="21.4"
   r="5.4"
   id="circle202" />
	<circle
   class="st2"
   cx="102.7"
   cy="21.4"
   r="5.4"
   id="circle204" />
	<circle
   class="st2"
   cx="119.2"
   cy="21.4"
   r="5.4"
   id="circle206" />
	<circle
   class="st2"
   cx="135.6"
   cy="21.4"
   r="5.4"
   id="circle208" />
	<circle
   class="st2"
   cx="152.1"
   cy="21.4"
   r="5.4"
   id="circle210" />
	<circle
   class="st2"
   cx="168.6"
   cy="21.4"
   r="5.4"
   id="circle212" />
	<circle
   class="st2"
   cx="185.1"
   cy="21.4"
   r="5.4"
   id="circle214" />
	<circle
   class="st2"
   cx="201.6"
   cy="21.4"
   r="5.4"
   id="circle216" />
	<circle
   class="st3"
   cx="218.1"
   cy="21.4"
   r="5.4"
   id="circle218" />
	<circle
   class="st2"
   cx="234.5"
   cy="21.4"
   r="5.4"
   id="circle220" />
	<circle
   class="st2"
   cx="251"
   cy="21.4"
   r="5.4"
   id="circle222" />
	<circle
   class="st2"
   cx="267.5"
   cy="21.4"
   r="5.4"
   id="circle224" />
	<circle
   class="st2"
   cx="284"
   cy="21.4"
   r="5.4"
   id="circle226" />
	<circle
   class="st2"
   cx="300.5"
   cy="21.4"
   r="5.4"
   id="circle228" />
	<circle
   class="st2"
   cx="317"
   cy="21.4"
   r="5.4"
   id="circle230" />
	<circle
   class="st2"
   cx="333.4"
   cy="21.4"
   r="5.4"
   id="circle232" />
	<circle
   class="st2"
   cx="-4.4"
   cy="35.4"
   r="5.4"
   id="circle234" />
	<circle
   class="st2"
   cx="12.1"
   cy="35.4"
   r="5.4"
   id="circle236" />
	<circle
   class="st2"
   cx="28.6"
   cy="35.4"
   r="5.4"
   id="circle238" />
	<circle
   class="st2"
   cx="45.1"
   cy="35.4"
   r="5.4"
   id="circle240" />
	<circle
   class="st2"
   cx="61.6"
   cy="35.4"
   r="5.4"
   id="circle242" />
	<circle
   class="st2"
   cx="78"
   cy="35.4"
   r="5.4"
   id="circle244" />
	<circle
   class="st2"
   cx="94.5"
   cy="35.4"
   r="5.4"
   id="circle246" />
	<circle
   class="st2"
   cx="111"
   cy="35.4"
   r="5.4"
   id="circle248" />
	<circle
   class="st2"
   cx="127.5"
   cy="35.4"
   r="5.4"
   id="circle250" />
	<circle
   class="st2"
   cx="144"
   cy="35.4"
   r="5.4"
   id="circle252" />
	<circle
   class="st2"
   cx="160.5"
   cy="35.4"
   r="5.4"
   id="circle254" />
	<circle
   class="st2"
   cx="176.9"
   cy="35.4"
   r="5.4"
   id="circle256" />
	<circle
   class="st2"
   cx="193.4"
   cy="35.4"
   r="5.4"
   id="circle258" />
	<circle
   class="st2"
   cx="209.9"
   cy="35.4"
   r="5.4"
   id="circle260" />
	<circle
   class="st2"
   cx="226.4"
   cy="35.4"
   r="5.4"
   id="circle262" />
	<circle
   class="st2"
   cx="242.9"
   cy="35.4"
   r="5.4"
   id="circle264" />
	<circle
   class="st2"
   cx="259.4"
   cy="35.4"
   r="5.4"
   id="circle266" />
	<circle
   class="st2"
   cx="275.8"
   cy="35.4"
   r="5.4"
   id="circle268" />
	<circle
   class="st2"
   cx="292.3"
   cy="35.4"
   r="5.4"
   id="circle270" />
	<circle
   class="st2"
   cx="325.3"
   cy="35.4"
   r="5.4"
   id="circle272" />
	<circle
   class="st3"
   cx="341.8"
   cy="35.4"
   r="5.4"
   id="circle274" />
	<circle
   class="st2"
   cx="3.8"
   cy="49.5"
   r="5.4"
   id="circle276" />
	<circle
   class="st2"
   cx="20.3"
   cy="49.5"
   r="5.4"
   id="circle278" />
	<circle
   class="st2"
   cx="36.7"
   cy="49.5"
   r="5.4"
   id="circle280" />
	<circle
   class="st2"
   cx="53.2"
   cy="49.5"
   r="5.4"
   id="circle282" />
	<circle
   class="st2"
   cx="69.7"
   cy="49.5"
   r="5.4"
   id="circle284" />
	<circle
   class="st2"
   cx="86.2"
   cy="49.5"
   r="5.4"
   id="circle286" />
	<circle
   class="st2"
   cx="102.7"
   cy="49.5"
   r="5.4"
   id="circle288" />
	<circle
   class="st2"
   cx="119.2"
   cy="49.5"
   r="5.4"
   id="circle290" />
	<circle
   class="st1"
   cx="135.6"
   cy="49.5"
   r="5.4"
   id="circle292" />
	<circle
   class="st2"
   cx="152.1"
   cy="49.5"
   r="5.4"
   id="circle294" />
	<circle
   class="st2"
   cx="168.6"
   cy="49.5"
   r="5.4"
   id="circle296" />
	<circle
   class="st2"
   cx="185.1"
   cy="49.4"
   r="5.4"
   id="circle298" />
	<circle
   class="st1"
   cx="234.5"
   cy="49.4"
   r="5.4"
   id="circle300" />
	<circle
   class="st2"
   cx="251"
   cy="49.4"
   r="5.4"
   id="circle302" />
	<circle
   class="st2"
   cx="267.5"
   cy="49.4"
   r="5.4"
   id="circle304" />
	<circle
   class="st2"
   cx="-4.4"
   cy="63.5"
   r="5.4"
   id="circle306" />
	<circle
   class="st2"
   cx="12.1"
   cy="63.5"
   r="5.4"
   id="circle308" />
	<circle
   class="st2"
   cx="28.6"
   cy="63.5"
   r="5.4"
   id="circle310" />
	<circle
   class="st2"
   cx="45.1"
   cy="63.5"
   r="5.4"
   id="circle312" />
	<circle
   class="st2"
   cx="61.6"
   cy="63.5"
   r="5.4"
   id="circle314" />
	<circle
   class="st2"
   cx="78"
   cy="63.5"
   r="5.4"
   id="circle316" />
	<circle
   class="st2"
   cx="94.5"
   cy="63.5"
   r="5.4"
   id="circle318" />
	<circle
   class="st2"
   cx="111"
   cy="63.5"
   r="5.4"
   id="circle320" />
	<circle
   class="st2"
   cx="127.5"
   cy="63.5"
   r="5.4"
   id="circle322" />
	<circle
   class="st2"
   cx="144"
   cy="63.5"
   r="5.4"
   id="circle324" />
	<circle
   class="st2"
   cx="160.5"
   cy="63.5"
   r="5.4"
   id="circle326" />
	<circle
   class="st2"
   cx="3.8"
   cy="77.6"
   r="5.4"
   id="circle328" />
	<circle
   class="st2"
   cx="20.3"
   cy="77.5"
   r="5.4"
   id="circle330" />
	<circle
   class="st2"
   cx="36.7"
   cy="77.5"
   r="5.4"
   id="circle332" />
	<circle
   class="st2"
   cx="53.2"
   cy="77.5"
   r="5.4"
   id="circle334" />
	<circle
   class="st2"
   cx="69.7"
   cy="77.5"
   r="5.4"
   id="circle336" />
	<circle
   class="st2"
   cx="86.2"
   cy="77.5"
   r="5.4"
   id="circle338" />
	<circle
   class="st2"
   cx="102.7"
   cy="77.5"
   r="5.4"
   id="circle340" />
	<circle
   class="st2"
   cx="119.2"
   cy="77.5"
   r="5.4"
   id="circle342" />
	<circle
   class="st2"
   cx="135.6"
   cy="77.5"
   r="5.4"
   id="circle344" />
	<circle
   class="st2"
   cx="152.1"
   cy="77.5"
   r="5.4"
   id="circle346" />
	<circle
   class="st2"
   cx="-4.4"
   cy="91.6"
   r="5.4"
   id="circle348" />
	<circle
   class="st2"
   cx="12.1"
   cy="91.6"
   r="5.4"
   id="circle350" />
	<circle
   class="st2"
   cx="28.6"
   cy="91.6"
   r="5.4"
   id="circle352" />
	<circle
   class="st3"
   cx="45.1"
   cy="91.6"
   r="5.4"
   id="circle354" />
	<circle
   class="st2"
   cx="61.6"
   cy="91.6"
   r="5.4"
   id="circle356" />
	<circle
   class="st2"
   cx="78.1"
   cy="91.6"
   r="5.4"
   id="circle358" />
	<circle
   class="st2"
   cx="94.5"
   cy="91.6"
   r="5.4"
   id="circle360" />
	<circle
   class="st2"
   cx="111"
   cy="91.6"
   r="5.4"
   id="circle362" />
	<circle
   class="st2"
   cx="127.5"
   cy="91.6"
   r="5.4"
   id="circle364" />
	<circle
   class="st2"
   cx="3.8"
   cy="105.4"
   r="5.4"
   id="circle366" />
	<circle
   class="st2"
   cx="20.3"
   cy="105.4"
   r="5.4"
   id="circle368" />
	<circle
   class="st2"
   cx="36.8"
   cy="105.4"
   r="5.4"
   id="circle370" />
	<circle
   class="st2"
   cx="53.2"
   cy="105.4"
   r="5.4"
   id="circle372" />
	<circle
   class="st2"
   cx="69.7"
   cy="105.4"
   r="5.4"
   id="circle374" />
	<circle
   class="st2"
   cx="86.2"
   cy="105.4"
   r="5.4"
   id="circle376" />
	<circle
   class="st2"
   cx="102.7"
   cy="105.4"
   r="5.4"
   id="circle378" />
	<circle
   class="st2"
   cx="119.2"
   cy="105.4"
   r="5.4"
   id="circle380" />
	<circle
   class="st2"
   cx="135.7"
   cy="105.4"
   r="5.4"
   id="circle382" />
	<circle
   class="st2"
   cx="-4.4"
   cy="119.4"
   r="5.4"
   id="circle384" />
	<circle
   class="st2"
   cx="12.1"
   cy="119.4"
   r="5.4"
   id="circle386" />
	<circle
   class="st2"
   cx="28.6"
   cy="119.4"
   r="5.4"
   id="circle388" />
	<circle
   class="st2"
   cx="45.1"
   cy="119.4"
   r="5.4"
   id="circle390" />
	<circle
   class="st2"
   cx="61.6"
   cy="119.4"
   r="5.4"
   id="circle392" />
	<circle
   class="st2"
   cx="78.1"
   cy="119.4"
   r="5.4"
   id="circle394" />
	<circle
   class="st2"
   cx="94.5"
   cy="119.4"
   r="5.4"
   id="circle396" />
	<circle
   class="st2"
   cx="111"
   cy="119.4"
   r="5.4"
   id="circle398" />
	<circle
   class="st2"
   cx="127.5"
   cy="119.4"
   r="5.4"
   id="circle400" />
	<circle
   class="st2"
   cx="3.8"
   cy="133.5"
   r="5.4"
   id="circle402" />
	<circle
   class="st2"
   cx="20.3"
   cy="133.5"
   r="5.4"
   id="circle404" />
	<circle
   class="st2"
   cx="36.8"
   cy="133.5"
   r="5.4"
   id="circle406" />
	<circle
   class="st2"
   cx="53.2"
   cy="133.5"
   r="5.4"
   id="circle408" />
	<circle
   class="st2"
   cx="69.7"
   cy="133.5"
   r="5.4"
   id="circle410" />
	<circle
   class="st2"
   cx="86.2"
   cy="133.5"
   r="5.4"
   id="circle412" />
	<circle
   class="st2"
   cx="102.7"
   cy="133.5"
   r="5.4"
   id="circle414" />
	<circle
   class="st2"
   cx="119.2"
   cy="133.5"
   r="5.4"
   id="circle416" />
	<circle
   class="st2"
   cx="-4.4"
   cy="147.5"
   r="5.4"
   id="circle418" />
	<circle
   class="st3"
   cx="12.1"
   cy="147.5"
   r="5.4"
   id="circle420" />
	<circle
   class="st2"
   cx="28.6"
   cy="147.5"
   r="5.4"
   id="circle422" />
	<circle
   class="st2"
   cx="45.1"
   cy="147.5"
   r="5.4"
   id="circle424" />
	<circle
   class="st2"
   cx="61.6"
   cy="147.5"
   r="5.4"
   id="circle426" />
	<circle
   class="st2"
   cx="78.1"
   cy="147.5"
   r="5.4"
   id="circle428" />
	<circle
   class="st2"
   cx="94.5"
   cy="147.5"
   r="5.4"
   id="circle430" />
	<circle
   class="st2"
   cx="111"
   cy="147.5"
   r="5.4"
   id="circle432" />
	<circle
   class="st2"
   cx="127.5"
   cy="147.5"
   r="5.4"
   id="circle434" />
	<circle
   class="st2"
   cx="3.8"
   cy="161.6"
   r="5.4"
   id="circle436" />
	<circle
   class="st2"
   cx="20.3"
   cy="161.6"
   r="5.4"
   id="circle438" />
	<circle
   class="st2"
   cx="36.8"
   cy="161.5"
   r="5.4"
   id="circle440" />
	<circle
   class="st2"
   cx="53.2"
   cy="161.5"
   r="5.4"
   id="circle442" />
	<circle
   class="st2"
   cx="69.7"
   cy="161.5"
   r="5.4"
   id="circle444" />
	<circle
   class="st2"
   cx="86.2"
   cy="161.5"
   r="5.4"
   id="circle446" />
	<circle
   class="st2"
   cx="102.7"
   cy="161.5"
   r="5.4"
   id="circle448" />
	<circle
   class="st2"
   cx="119.2"
   cy="161.5"
   r="5.4"
   id="circle450" />
	<circle
   class="st2"
   cx="-4.4"
   cy="175.6"
   r="5.4"
   id="circle452" />
	<circle
   class="st2"
   cx="12.1"
   cy="175.6"
   r="5.4"
   id="circle454" />
	<circle
   class="st2"
   cx="28.6"
   cy="175.6"
   r="5.4"
   id="circle456" />
	<circle
   class="st2"
   cx="45.1"
   cy="175.6"
   r="5.4"
   id="circle458" />
	<circle
   class="st2"
   cx="61.6"
   cy="175.6"
   r="5.4"
   id="circle460" />
	<circle
   class="st2"
   cx="78.1"
   cy="175.6"
   r="5.4"
   id="circle462" />
	<circle
   class="st2"
   cx="94.5"
   cy="175.6"
   r="5.4"
   id="circle464" />
	<circle
   class="st2"
   cx="111"
   cy="175.6"
   r="5.4"
   id="circle466" />
	<circle
   class="st2"
   cx="127.5"
   cy="175.6"
   r="5.4"
   id="circle468" />
	<circle
   class="st2"
   cx="3.8"
   cy="189.6"
   r="5.4"
   id="circle470" />
	<circle
   class="st2"
   cx="20.3"
   cy="189.6"
   r="5.4"
   id="circle472" />
	<circle
   class="st2"
   cx="36.8"
   cy="189.6"
   r="5.4"
   id="circle474" />
	<circle
   class="st2"
   cx="53.3"
   cy="189.6"
   r="5.4"
   id="circle476" />
	<circle
   class="st2"
   cx="69.7"
   cy="189.6"
   r="5.4"
   id="circle478" />
	<circle
   class="st2"
   cx="86.2"
   cy="189.6"
   r="5.4"
   id="circle480" />
	<circle
   class="st2"
   cx="102.7"
   cy="189.6"
   r="5.4"
   id="circle482" />
	<circle
   class="st2"
   cx="119.2"
   cy="189.6"
   r="5.4"
   id="circle484" />
	<circle
   class="st2"
   cx="135.7"
   cy="189.6"
   r="5.4"
   id="circle486" />
	<circle
   class="st2"
   cx="-4.3"
   cy="203.7"
   r="5.4"
   id="circle488" />
	<circle
   class="st2"
   cx="12.1"
   cy="203.7"
   r="5.4"
   id="circle490" />
	<circle
   class="st2"
   cx="28.6"
   cy="203.7"
   r="5.4"
   id="circle492" />
	<circle
   class="st2"
   cx="45.1"
   cy="203.7"
   r="5.4"
   id="circle494" />
	<circle
   class="st2"
   cx="61.6"
   cy="203.7"
   r="5.4"
   id="circle496" />
	<circle
   class="st2"
   cx="78.1"
   cy="203.7"
   r="5.4"
   id="circle498" />
	<circle
   class="st2"
   cx="94.6"
   cy="203.6"
   r="5.4"
   id="circle500" />
	<circle
   class="st2"
   cx="111"
   cy="203.6"
   r="5.4"
   id="circle502" />
	<circle
   class="st2"
   cx="127.5"
   cy="203.6"
   r="5.4"
   id="circle504" />
	<circle
   class="st2"
   cx="144"
   cy="203.6"
   r="5.4"
   id="circle506" />
	<circle
   class="st2"
   cx="3.8"
   cy="217.7"
   r="5.4"
   id="circle508" />
	<circle
   class="st2"
   cx="20.3"
   cy="217.7"
   r="5.4"
   id="circle510" />
	<circle
   class="st2"
   cx="36.8"
   cy="217.7"
   r="5.4"
   id="circle512" />
	<circle
   class="st1"
   cx="53.3"
   cy="217.7"
   r="5.4"
   id="circle514" />
	<circle
   class="st2"
   cx="69.7"
   cy="217.7"
   r="5.4"
   id="circle516" />
	<circle
   class="st2"
   cx="86.2"
   cy="217.7"
   r="5.4"
   id="circle518" />
	<circle
   class="st2"
   cx="102.7"
   cy="217.7"
   r="5.4"
   id="circle520" />
	<circle
   class="st2"
   cx="119.2"
   cy="217.7"
   r="5.4"
   id="circle522" />
	<circle
   class="st2"
   cx="135.7"
   cy="217.7"
   r="5.4"
   id="circle524" />
	<circle
   class="st2"
   cx="152.2"
   cy="217.7"
   r="5.4"
   id="circle526" />
	<circle
   class="st2"
   cx="-4.3"
   cy="231.7"
   r="5.4"
   id="circle528" />
	<circle
   class="st2"
   cx="12.1"
   cy="231.7"
   r="5.4"
   id="circle530" />
	<circle
   class="st2"
   cx="28.6"
   cy="231.7"
   r="5.4"
   id="circle532" />
	<circle
   class="st2"
   cx="45.1"
   cy="231.7"
   r="5.4"
   id="circle534" />
	<circle
   class="st2"
   cx="61.6"
   cy="231.7"
   r="5.4"
   id="circle536" />
	<circle
   class="st2"
   cx="78.1"
   cy="231.7"
   r="5.4"
   id="circle538" />
	<circle
   class="st2"
   cx="94.6"
   cy="231.7"
   r="5.4"
   id="circle540" />
	<circle
   class="st2"
   cx="111"
   cy="231.7"
   r="5.4"
   id="circle542" />
	<circle
   class="st2"
   cx="127.5"
   cy="231.7"
   r="5.4"
   id="circle544" />
	<circle
   class="st2"
   cx="144"
   cy="231.7"
   r="5.4"
   id="circle546" />
	<circle
   class="st2"
   cx="160.5"
   cy="231.7"
   r="5.4"
   id="circle548" />
	<circle
   class="st2"
   cx="177"
   cy="231.7"
   r="5.4"
   id="circle550" />
	<circle
   class="st2"
   cx="3.8"
   cy="245.8"
   r="5.4"
   id="circle552" />
	<circle
   class="st2"
   cx="20.3"
   cy="245.8"
   r="5.4"
   id="circle554" />
	<circle
   class="st2"
   cx="36.8"
   cy="245.8"
   r="5.4"
   id="circle556" />
	<circle
   class="st2"
   cx="53.3"
   cy="245.8"
   r="5.4"
   id="circle558" />
	<circle
   class="st2"
   cx="69.7"
   cy="245.8"
   r="5.4"
   id="circle560" />
	<circle
   class="st2"
   cx="86.2"
   cy="245.8"
   r="5.4"
   id="circle562" />
	<circle
   class="st2"
   cx="102.7"
   cy="245.8"
   r="5.4"
   id="circle564" />
	<circle
   class="st2"
   cx="119.2"
   cy="245.8"
   r="5.4"
   id="circle566" />
	<circle
   class="st1"
   cx="135.7"
   cy="245.8"
   r="5.4"
   id="circle568" />
	<circle
   class="st2"
   cx="152.2"
   cy="245.7"
   r="5.4"
   id="circle570" />
	<circle
   class="st2"
   cx="168.6"
   cy="245.7"
   r="5.4"
   id="circle572" />
	<circle
   class="st2"
   cx="185.1"
   cy="245.7"
   r="5.4"
   id="circle574" />
	<circle
   class="st2"
   cx="-4.3"
   cy="259.8"
   r="5.4"
   id="circle576" />
	<circle
   class="st2"
   cx="12.1"
   cy="259.8"
   r="5.4"
   id="circle578" />
	<circle
   class="st2"
   cx="28.6"
   cy="259.8"
   r="5.4"
   id="circle580" />
	<circle
   class="st2"
   cx="45.1"
   cy="259.8"
   r="5.4"
   id="circle582" />
	<circle
   class="st2"
   cx="61.6"
   cy="259.8"
   r="5.4"
   id="circle584" />
	<circle
   class="st2"
   cx="78.1"
   cy="259.8"
   r="5.4"
   id="circle586" />
	<circle
   class="st2"
   cx="94.6"
   cy="259.8"
   r="5.4"
   id="circle588" />
	<circle
   class="st2"
   cx="111"
   cy="259.8"
   r="5.4"
   id="circle590" />
	<circle
   class="st3"
   cx="127.5"
   cy="259.8"
   r="5.4"
   id="circle592" />
	<circle
   class="st1"
   cx="144"
   cy="259.8"
   r="5.4"
   id="circle594" />
	<circle
   class="st2"
   cx="160.5"
   cy="259.8"
   r="5.4"
   id="circle596" />
	<circle
   class="st2"
   cx="177"
   cy="259.8"
   r="5.4"
   id="circle598" />
</g>
<g
   id="g872">
	<circle
   class="st2"
   cx="5"
   cy="273.4"
   r="5.4"
   id="circle602" />
	<circle
   class="st2"
   cx="21.5"
   cy="273.4"
   r="5.4"
   id="circle604" />
	<circle
   class="st2"
   cx="38"
   cy="273.4"
   r="5.4"
   id="circle606" />
	<circle
   class="st2"
   cx="54.5"
   cy="273.4"
   r="5.4"
   id="circle608" />
	<circle
   class="st2"
   cx="71"
   cy="273.4"
   r="5.4"
   id="circle610" />
	<circle
   class="st2"
   cx="87.4"
   cy="273.4"
   r="5.4"
   id="circle612" />
	<circle
   class="st2"
   cx="103.9"
   cy="273.4"
   r="5.4"
   id="circle614" />
	<circle
   class="st2"
   cx="120.4"
   cy="273.4"
   r="5.4"
   id="circle616" />
	<circle
   class="st2"
   cx="136.9"
   cy="273.4"
   r="5.4"
   id="circle618" />
	<circle
   class="st2"
   cx="153.4"
   cy="273.4"
   r="5.4"
   id="circle620" />
	<circle
   class="st2"
   cx="-3.1"
   cy="287.5"
   r="5.4"
   id="circle622" />
	<circle
   class="st2"
   cx="13.4"
   cy="287.5"
   r="5.4"
   id="circle624" />
	<circle
   class="st2"
   cx="29.8"
   cy="287.5"
   r="5.4"
   id="circle626" />
	<circle
   class="st2"
   cx="46.3"
   cy="287.5"
   r="5.4"
   id="circle628" />
	<circle
   class="st2"
   cx="62.8"
   cy="287.5"
   r="5.4"
   id="circle630" />
	<circle
   class="st2"
   cx="79.3"
   cy="287.5"
   r="5.4"
   id="circle632" />
	<circle
   class="st2"
   cx="95.8"
   cy="287.5"
   r="5.4"
   id="circle634" />
	<circle
   class="st2"
   cx="112.3"
   cy="287.5"
   r="5.4"
   id="circle636" />
	<circle
   class="st2"
   cx="128.7"
   cy="287.5"
   r="5.4"
   id="circle638" />
	<circle
   class="st2"
   cx="145.2"
   cy="287.5"
   r="5.4"
   id="circle640" />
	<circle
   class="st2"
   cx="161.7"
   cy="287.5"
   r="5.4"
   id="circle642" />
	<circle
   class="st2"
   cx="178.2"
   cy="287.5"
   r="5.4"
   id="circle644" />
	<circle
   class="st2"
   cx="194.7"
   cy="287.5"
   r="5.4"
   id="circle646" />
	<circle
   class="st2"
   cx="211.2"
   cy="287.4"
   r="5.4"
   id="circle648" />
	<circle
   class="st2"
   cx="227.6"
   cy="287.4"
   r="5.4"
   id="circle650" />
	<circle
   class="st2"
   cx="5"
   cy="301.5"
   r="5.4"
   id="circle652" />
	<circle
   class="st2"
   cx="21.5"
   cy="301.5"
   r="5.4"
   id="circle654" />
	<circle
   class="st2"
   cx="38"
   cy="301.5"
   r="5.4"
   id="circle656" />
	<circle
   class="st2"
   cx="54.5"
   cy="301.5"
   r="5.4"
   id="circle658" />
	<circle
   class="st2"
   cx="71"
   cy="301.5"
   r="5.4"
   id="circle660" />
	<circle
   class="st2"
   cx="87.4"
   cy="301.5"
   r="5.4"
   id="circle662" />
	<circle
   class="st2"
   cx="103.9"
   cy="301.5"
   r="5.4"
   id="circle664" />
	<circle
   class="st2"
   cx="120.4"
   cy="301.5"
   r="5.4"
   id="circle666" />
	<circle
   class="st2"
   cx="136.9"
   cy="301.5"
   r="5.4"
   id="circle668" />
	<circle
   class="st2"
   cx="153.4"
   cy="301.5"
   r="5.4"
   id="circle670" />
	<circle
   class="st2"
   cx="169.9"
   cy="301.5"
   r="5.4"
   id="circle672" />
	<circle
   class="st2"
   cx="186.3"
   cy="301.5"
   r="5.4"
   id="circle674" />
	<circle
   class="st2"
   cx="202.8"
   cy="301.5"
   r="5.4"
   id="circle676" />
	<circle
   class="st2"
   cx="219.3"
   cy="301.5"
   r="5.4"
   id="circle678" />
	<circle
   class="st2"
   cx="235.8"
   cy="301.5"
   r="5.4"
   id="circle680" />
	<circle
   class="st2"
   cx="252.3"
   cy="301.5"
   r="5.4"
   id="circle682" />
	<circle
   class="st2"
   cx="-3.1"
   cy="315.6"
   r="5.4"
   id="circle684" />
	<circle
   class="st3"
   cx="13.4"
   cy="315.6"
   r="5.4"
   id="circle686" />
	<circle
   class="st2"
   cx="29.8"
   cy="315.6"
   r="5.4"
   id="circle688" />
	<circle
   class="st2"
   cx="46.3"
   cy="315.5"
   r="5.4"
   id="circle690" />
	<circle
   class="st2"
   cx="62.8"
   cy="315.5"
   r="5.4"
   id="circle692" />
	<circle
   class="st2"
   cx="79.3"
   cy="315.5"
   r="5.4"
   id="circle694" />
	<circle
   class="st2"
   cx="95.8"
   cy="315.5"
   r="5.4"
   id="circle696" />
	<circle
   class="st2"
   cx="112.3"
   cy="315.5"
   r="5.4"
   id="circle698" />
	<circle
   class="st2"
   cx="128.7"
   cy="315.5"
   r="5.4"
   id="circle700" />
	<circle
   class="st2"
   cx="145.2"
   cy="315.5"
   r="5.4"
   id="circle702" />
	<circle
   class="st2"
   cx="161.7"
   cy="315.5"
   r="5.4"
   id="circle704" />
	<circle
   class="st2"
   cx="178.2"
   cy="315.5"
   r="5.4"
   id="circle706" />
	<circle
   class="st2"
   cx="194.7"
   cy="315.5"
   r="5.4"
   id="circle708" />
	<circle
   class="st2"
   cx="211.2"
   cy="315.5"
   r="5.4"
   id="circle710" />
	<circle
   class="st3"
   cx="227.6"
   cy="315.5"
   r="5.4"
   id="circle712" />
	<circle
   class="st2"
   cx="244.1"
   cy="315.5"
   r="5.4"
   id="circle714" />
	<circle
   class="st2"
   cx="260.6"
   cy="315.5"
   r="5.4"
   id="circle716" />
	<circle
   class="st2"
   cx="277.1"
   cy="315.5"
   r="5.4"
   id="circle718" />
	<circle
   class="st2"
   cx="5"
   cy="329.6"
   r="5.4"
   id="circle720" />
	<circle
   class="st2"
   cx="21.5"
   cy="329.6"
   r="5.4"
   id="circle722" />
	<circle
   class="st2"
   cx="38"
   cy="329.6"
   r="5.4"
   id="circle724" />
	<circle
   class="st2"
   cx="54.5"
   cy="329.6"
   r="5.4"
   id="circle726" />
	<circle
   class="st2"
   cx="71"
   cy="329.6"
   r="5.4"
   id="circle728" />
	<circle
   class="st2"
   cx="87.4"
   cy="329.6"
   r="5.4"
   id="circle730" />
	<circle
   class="st2"
   cx="103.9"
   cy="329.6"
   r="5.4"
   id="circle732" />
	<circle
   class="st2"
   cx="120.4"
   cy="329.6"
   r="5.4"
   id="circle734" />
	<circle
   class="st2"
   cx="136.9"
   cy="329.6"
   r="5.4"
   id="circle736" />
	<circle
   class="st2"
   cx="153.4"
   cy="329.6"
   r="5.4"
   id="circle738" />
	<circle
   class="st2"
   cx="169.9"
   cy="329.6"
   r="5.4"
   id="circle740" />
	<circle
   class="st2"
   cx="186.3"
   cy="329.6"
   r="5.4"
   id="circle742" />
	<circle
   class="st2"
   cx="202.8"
   cy="329.6"
   r="5.4"
   id="circle744" />
	<circle
   class="st2"
   cx="219.3"
   cy="329.6"
   r="5.4"
   id="circle746" />
	<circle
   class="st2"
   cx="235.8"
   cy="329.6"
   r="5.4"
   id="circle748" />
	<circle
   class="st2"
   cx="252.3"
   cy="329.6"
   r="5.4"
   id="circle750" />
	<circle
   class="st2"
   cx="268.8"
   cy="329.5"
   r="5.4"
   id="circle752" />
	<circle
   class="st2"
   cx="285.2"
   cy="329.5"
   r="5.4"
   id="circle754" />
	<circle
   class="st2"
   cx="-3.1"
   cy="343.6"
   r="5.4"
   id="circle756" />
	<circle
   class="st2"
   cx="13.4"
   cy="343.6"
   r="5.4"
   id="circle758" />
	<circle
   class="st2"
   cx="29.8"
   cy="343.6"
   r="5.4"
   id="circle760" />
	<circle
   class="st2"
   cx="46.3"
   cy="343.6"
   r="5.4"
   id="circle762" />
	<circle
   class="st2"
   cx="62.8"
   cy="343.6"
   r="5.4"
   id="circle764" />
	<circle
   class="st1"
   cx="79.3"
   cy="343.6"
   r="5.4"
   id="circle766" />
	<circle
   class="st2"
   cx="95.8"
   cy="343.6"
   r="5.4"
   id="circle768" />
	<circle
   class="st2"
   cx="112.3"
   cy="343.6"
   r="5.4"
   id="circle770" />
	<circle
   class="st2"
   cx="128.7"
   cy="343.6"
   r="5.4"
   id="circle772" />
	<circle
   class="st2"
   cx="145.2"
   cy="343.6"
   r="5.4"
   id="circle774" />
	<circle
   class="st2"
   cx="161.7"
   cy="343.6"
   r="5.4"
   id="circle776" />
	<circle
   class="st2"
   cx="178.2"
   cy="343.6"
   r="5.4"
   id="circle778" />
	<circle
   class="st2"
   cx="194.7"
   cy="343.6"
   r="5.4"
   id="circle780" />
	<circle
   class="st2"
   cx="211.2"
   cy="343.6"
   r="5.4"
   id="circle782" />
	<circle
   class="st2"
   cx="260.6"
   cy="343.6"
   r="5.4"
   id="circle784" />
	<circle
   class="st1"
   cx="277.1"
   cy="343.6"
   r="5.4"
   id="circle786" />
	<circle
   class="st2"
   cx="5"
   cy="357.7"
   r="5.4"
   id="circle788" />
	<circle
   class="st2"
   cx="21.5"
   cy="357.7"
   r="5.4"
   id="circle790" />
	<circle
   class="st3"
   cx="38"
   cy="357.7"
   r="5.4"
   id="circle792" />
	<circle
   class="st2"
   cx="54.5"
   cy="357.7"
   r="5.4"
   id="circle794" />
	<circle
   class="st2"
   cx="71"
   cy="357.7"
   r="5.4"
   id="circle796" />
	<circle
   class="st2"
   cx="87.5"
   cy="357.7"
   r="5.4"
   id="circle798" />
	<circle
   class="st2"
   cx="103.9"
   cy="357.6"
   r="5.4"
   id="circle800" />
	<circle
   class="st2"
   cx="120.4"
   cy="357.6"
   r="5.4"
   id="circle802" />
	<circle
   class="st2"
   cx="136.9"
   cy="357.6"
   r="5.4"
   id="circle804" />
	<circle
   class="st2"
   cx="153.4"
   cy="357.6"
   r="5.4"
   id="circle806" />
	<circle
   class="st2"
   cx="169.9"
   cy="357.6"
   r="5.4"
   id="circle808" />
	<circle
   class="st2"
   cx="186.3"
   cy="357.6"
   r="5.4"
   id="circle810" />
	<circle
   class="st2"
   cx="202.8"
   cy="357.6"
   r="5.4"
   id="circle812" />
	<circle
   class="st2"
   cx="219.3"
   cy="357.6"
   r="5.4"
   id="circle814" />
	<circle
   class="st2"
   cx="-3.1"
   cy="371.7"
   r="5.4"
   id="circle816" />
	<circle
   class="st3"
   cx="13.4"
   cy="371.7"
   r="5.4"
   id="circle818" />
	<circle
   class="st2"
   cx="29.9"
   cy="371.7"
   r="5.4"
   id="circle820" />
	<circle
   class="st2"
   cx="46.3"
   cy="371.7"
   r="5.4"
   id="circle822" />
	<circle
   class="st2"
   cx="62.8"
   cy="371.7"
   r="5.4"
   id="circle824" />
	<circle
   class="st2"
   cx="79.3"
   cy="371.7"
   r="5.4"
   id="circle826" />
	<circle
   class="st1"
   cx="95.8"
   cy="371.7"
   r="5.4"
   id="circle828" />
	<circle
   class="st2"
   cx="112.3"
   cy="371.7"
   r="5.4"
   id="circle830" />
	<circle
   class="st2"
   cx="128.8"
   cy="371.7"
   r="5.4"
   id="circle832" />
	<circle
   class="st2"
   cx="145.2"
   cy="371.7"
   r="5.4"
   id="circle834" />
	<circle
   class="st2"
   cx="161.7"
   cy="371.7"
   r="5.4"
   id="circle836" />
	<circle
   class="st2"
   cx="178.2"
   cy="371.7"
   r="5.4"
   id="circle838" />
	<circle
   class="st2"
   cx="194.7"
   cy="371.7"
   r="5.4"
   id="circle840" />
	<circle
   class="st2"
   cx="211.2"
   cy="371.7"
   r="5.4"
   id="circle842" />
	<circle
   class="st2"
   cx="227.7"
   cy="371.7"
   r="5.4"
   id="circle844" />
	<circle
   class="st2"
   cx="5"
   cy="385.7"
   r="5.4"
   id="circle846" />
	<circle
   class="st2"
   cx="21.5"
   cy="385.7"
   r="5.4"
   id="circle848" />
	<circle
   class="st2"
   cx="38"
   cy="385.7"
   r="5.4"
   id="circle850" />
	<circle
   class="st2"
   cx="54.5"
   cy="385.7"
   r="5.4"
   id="circle852" />
	<circle
   class="st2"
   cx="71"
   cy="385.7"
   r="5.4"
   id="circle854" />
	<circle
   class="st2"
   cx="87.5"
   cy="385.7"
   r="5.4"
   id="circle856" />
	<circle
   class="st2"
   cx="103.9"
   cy="385.7"
   r="5.4"
   id="circle858" />
	<circle
   class="st2"
   cx="120.4"
   cy="385.7"
   r="5.4"
   id="circle860" />
	<circle
   class="st2"
   cx="136.9"
   cy="385.7"
   r="5.4"
   id="circle862" />
	<circle
   class="st2"
   cx="153.4"
   cy="385.7"
   r="5.4"
   id="circle864" />
	<circle
   class="st1"
   cx="202.8"
   cy="385.7"
   r="5.4"
   id="circle866" />
	<circle
   class="st2"
   cx="219.3"
   cy="385.7"
   r="5.4"
   id="circle868" />
	<circle
   class="st2"
   cx="235.8"
   cy="385.7"
   r="5.4"
   id="circle870" />
</g>
<g
   class="st8"
   id="g1206">
	<g
   class="st9"
   id="g1186">
		<circle
   class="st2"
   cx="257"
   cy="326"
   r="2.9"
   id="circle874" />
		<circle
   class="st2"
   cx="265.9"
   cy="326"
   r="2.9"
   id="circle876" />
		<circle
   class="st2"
   cx="274.7"
   cy="326"
   r="2.9"
   id="circle878" />
		<circle
   class="st2"
   cx="283.6"
   cy="326"
   r="2.9"
   id="circle880" />
		<circle
   class="st2"
   cx="292.5"
   cy="326"
   r="2.9"
   id="circle882" />
		<circle
   class="st2"
   cx="301.4"
   cy="326"
   r="2.9"
   id="circle884" />
		<circle
   class="st2"
   cx="234.7"
   cy="333.4"
   r="2.9"
   id="circle886" />
		<circle
   class="st2"
   cx="243.6"
   cy="333.4"
   r="2.9"
   id="circle888" />
		<circle
   class="st2"
   cx="252.5"
   cy="333.4"
   r="2.9"
   id="circle890" />
		<circle
   class="st2"
   cx="261.4"
   cy="333.4"
   r="2.9"
   id="circle892" />
		<circle
   class="st2"
   cx="270.3"
   cy="333.4"
   r="2.9"
   id="circle894" />
		<circle
   class="st2"
   cx="279.1"
   cy="333.4"
   r="2.9"
   id="circle896" />
		<circle
   class="st2"
   cx="288"
   cy="333.4"
   r="2.9"
   id="circle898" />
		<circle
   class="st2"
   cx="296.9"
   cy="333.4"
   r="2.9"
   id="circle900" />
		<circle
   class="st2"
   cx="305.8"
   cy="333.4"
   r="2.9"
   id="circle902" />
		<circle
   class="st2"
   cx="314.6"
   cy="333.4"
   r="2.9"
   id="circle904" />
		<circle
   class="st2"
   cx="239.2"
   cy="341"
   r="2.9"
   id="circle906" />
		<circle
   class="st2"
   cx="248.1"
   cy="341"
   r="2.9"
   id="circle908" />
		<circle
   class="st2"
   cx="257"
   cy="341"
   r="2.9"
   id="circle910" />
		<circle
   class="st2"
   cx="265.9"
   cy="341"
   r="2.9"
   id="circle912" />
		<circle
   class="st2"
   cx="274.7"
   cy="341"
   r="2.9"
   id="circle914" />
		<circle
   class="st2"
   cx="283.6"
   cy="341"
   r="2.9"
   id="circle916" />
		<circle
   class="st2"
   cx="292.5"
   cy="341"
   r="2.9"
   id="circle918" />
		<circle
   class="st2"
   cx="301.4"
   cy="341"
   r="2.9"
   id="circle920" />
		<circle
   class="st2"
   cx="310.3"
   cy="341"
   r="2.9"
   id="circle922" />
		<circle
   class="st2"
   cx="319.1"
   cy="341"
   r="2.9"
   id="circle924" />
		<circle
   class="st2"
   cx="328"
   cy="341"
   r="2.9"
   id="circle926" />
		<circle
   class="st2"
   cx="336.9"
   cy="341"
   r="2.9"
   id="circle928" />
		<circle
   class="st2"
   cx="345.8"
   cy="341"
   r="2.9"
   id="circle930" />
		<circle
   class="st2"
   cx="354.6"
   cy="341"
   r="2.9"
   id="circle932" />
		<circle
   class="st2"
   cx="363.5"
   cy="341"
   r="2.9"
   id="circle934" />
		<circle
   class="st2"
   cx="372.4"
   cy="341"
   r="2.9"
   id="circle936" />
		<circle
   class="st2"
   cx="381.3"
   cy="340.9"
   r="2.9"
   id="circle938" />
		<circle
   class="st2"
   cx="261.4"
   cy="348.5"
   r="2.9"
   id="circle940" />
		<circle
   class="st2"
   cx="270.3"
   cy="348.5"
   r="2.9"
   id="circle942" />
		<circle
   class="st2"
   cx="279.1"
   cy="348.5"
   r="2.9"
   id="circle944" />
		<circle
   class="st2"
   cx="288"
   cy="348.5"
   r="2.9"
   id="circle946" />
		<circle
   class="st2"
   cx="296.9"
   cy="348.5"
   r="2.9"
   id="circle948" />
		<circle
   class="st2"
   cx="305.8"
   cy="348.5"
   r="2.9"
   id="circle950" />
		<circle
   class="st2"
   cx="314.6"
   cy="348.5"
   r="2.9"
   id="circle952" />
		<circle
   class="st2"
   cx="323.5"
   cy="348.5"
   r="2.9"
   id="circle954" />
		<circle
   class="st2"
   cx="332.4"
   cy="348.5"
   r="2.9"
   id="circle956" />
		<circle
   class="st2"
   cx="341.3"
   cy="348.5"
   r="2.9"
   id="circle958" />
		<circle
   class="st2"
   cx="350.1"
   cy="348.5"
   r="2.9"
   id="circle960" />
		<circle
   class="st2"
   cx="359"
   cy="348.5"
   r="2.9"
   id="circle962" />
		<circle
   class="st2"
   cx="367.9"
   cy="348.5"
   r="2.9"
   id="circle964" />
		<circle
   class="st2"
   cx="376.8"
   cy="348.5"
   r="2.9"
   id="circle966" />
		<circle
   class="st2"
   cx="385.7"
   cy="348.5"
   r="2.9"
   id="circle968" />
		<circle
   class="st2"
   cx="394.5"
   cy="348.5"
   r="2.9"
   id="circle970" />
		<circle
   class="st2"
   cx="403.4"
   cy="348.5"
   r="2.9"
   id="circle972" />
		<circle
   class="st2"
   cx="412.3"
   cy="348.5"
   r="2.9"
   id="circle974" />
		<circle
   class="st2"
   cx="421.2"
   cy="348.5"
   r="2.9"
   id="circle976" />
		<circle
   class="st2"
   cx="430"
   cy="348.5"
   r="2.9"
   id="circle978" />
		<circle
   class="st2"
   cx="438.9"
   cy="348.5"
   r="2.9"
   id="circle980" />
		<circle
   class="st2"
   cx="447.8"
   cy="348.5"
   r="2.9"
   id="circle982" />
		<circle
   class="st2"
   cx="456.7"
   cy="348.5"
   r="2.9"
   id="circle984" />
		<circle
   class="st2"
   cx="230.4"
   cy="356.1"
   r="2.9"
   id="circle986" />
		<circle
   class="st2"
   cx="239.2"
   cy="356.1"
   r="2.9"
   id="circle988" />
		<circle
   class="st2"
   cx="248.1"
   cy="356.1"
   r="2.9"
   id="circle990" />
		<circle
   class="st2"
   cx="257"
   cy="356.1"
   r="2.9"
   id="circle992" />
		<circle
   class="st2"
   cx="265.9"
   cy="356.1"
   r="2.9"
   id="circle994" />
		<circle
   class="st2"
   cx="274.7"
   cy="356.1"
   r="2.9"
   id="circle996" />
		<circle
   class="st2"
   cx="283.6"
   cy="356.1"
   r="2.9"
   id="circle998" />
		<circle
   class="st2"
   cx="292.5"
   cy="356.1"
   r="2.9"
   id="circle1000" />
		<circle
   class="st2"
   cx="301.4"
   cy="356.1"
   r="2.9"
   id="circle1002" />
		<circle
   class="st2"
   cx="310.3"
   cy="356.1"
   r="2.9"
   id="circle1004" />
		<circle
   class="st2"
   cx="319.1"
   cy="356.1"
   r="2.9"
   id="circle1006" />
		<circle
   class="st2"
   cx="328"
   cy="356.1"
   r="2.9"
   id="circle1008" />
		<circle
   class="st2"
   cx="336.9"
   cy="356.1"
   r="2.9"
   id="circle1010" />
		<circle
   class="st2"
   cx="345.8"
   cy="356.1"
   r="2.9"
   id="circle1012" />
		<circle
   class="st2"
   cx="354.6"
   cy="356.1"
   r="2.9"
   id="circle1014" />
		<circle
   class="st2"
   cx="363.5"
   cy="356.1"
   r="2.9"
   id="circle1016" />
		<circle
   class="st2"
   cx="372.4"
   cy="356.1"
   r="2.9"
   id="circle1018" />
		<circle
   class="st2"
   cx="381.3"
   cy="356.1"
   r="2.9"
   id="circle1020" />
		<circle
   class="st2"
   cx="390.1"
   cy="356.1"
   r="2.9"
   id="circle1022" />
		<circle
   class="st2"
   cx="399"
   cy="356.1"
   r="2.9"
   id="circle1024" />
		<circle
   class="st2"
   cx="407.9"
   cy="356.1"
   r="2.9"
   id="circle1026" />
		<circle
   class="st2"
   cx="416.8"
   cy="356.1"
   r="2.9"
   id="circle1028" />
		<circle
   class="st2"
   cx="425.6"
   cy="356.1"
   r="2.9"
   id="circle1030" />
		<circle
   class="st2"
   cx="434.5"
   cy="356.1"
   r="2.9"
   id="circle1032" />
		<circle
   class="st2"
   cx="443.4"
   cy="356.1"
   r="2.9"
   id="circle1034" />
		<circle
   class="st2"
   cx="452.3"
   cy="356.1"
   r="2.9"
   id="circle1036" />
		<circle
   class="st2"
   cx="461.2"
   cy="356.1"
   r="2.9"
   id="circle1038" />
		<circle
   class="st2"
   cx="470"
   cy="356.1"
   r="2.9"
   id="circle1040" />
		<circle
   class="st2"
   cx="478.9"
   cy="356.1"
   r="2.9"
   id="circle1042" />
		<circle
   class="st2"
   cx="487.8"
   cy="356"
   r="2.9"
   id="circle1044" />
		<circle
   class="st2"
   cx="243.6"
   cy="363.6"
   r="2.9"
   id="circle1046" />
		<circle
   class="st2"
   cx="252.5"
   cy="363.6"
   r="2.9"
   id="circle1048" />
		<circle
   class="st2"
   cx="261.4"
   cy="363.6"
   r="2.9"
   id="circle1050" />
		<circle
   class="st2"
   cx="270.3"
   cy="363.6"
   r="2.9"
   id="circle1052" />
		<circle
   class="st2"
   cx="279.1"
   cy="363.6"
   r="2.9"
   id="circle1054" />
		<circle
   class="st2"
   cx="288"
   cy="363.6"
   r="2.9"
   id="circle1056" />
		<circle
   class="st2"
   cx="296.9"
   cy="363.6"
   r="2.9"
   id="circle1058" />
		<circle
   class="st2"
   cx="305.8"
   cy="363.6"
   r="2.9"
   id="circle1060" />
		<circle
   class="st2"
   cx="314.6"
   cy="363.6"
   r="2.9"
   id="circle1062" />
		<circle
   class="st2"
   cx="323.5"
   cy="363.6"
   r="2.9"
   id="circle1064" />
		<circle
   class="st2"
   cx="332.4"
   cy="363.6"
   r="2.9"
   id="circle1066" />
		<circle
   class="st2"
   cx="341.3"
   cy="363.6"
   r="2.9"
   id="circle1068" />
		<circle
   class="st2"
   cx="350.1"
   cy="363.6"
   r="2.9"
   id="circle1070" />
		<circle
   class="st2"
   cx="359"
   cy="363.6"
   r="2.9"
   id="circle1072" />
		<circle
   class="st2"
   cx="367.9"
   cy="363.6"
   r="2.9"
   id="circle1074" />
		<circle
   class="st2"
   cx="230.4"
   cy="371.2"
   r="2.9"
   id="circle1076" />
		<circle
   class="st2"
   cx="239.2"
   cy="371.2"
   r="2.9"
   id="circle1078" />
		<circle
   class="st2"
   cx="248.1"
   cy="371.2"
   r="2.9"
   id="circle1080" />
		<circle
   class="st2"
   cx="257"
   cy="371.2"
   r="2.9"
   id="circle1082" />
		<circle
   class="st2"
   cx="265.9"
   cy="371.2"
   r="2.9"
   id="circle1084" />
		<circle
   class="st2"
   cx="274.7"
   cy="371.2"
   r="2.9"
   id="circle1086" />
		<circle
   class="st2"
   cx="283.6"
   cy="371.2"
   r="2.9"
   id="circle1088" />
		<circle
   class="st2"
   cx="292.5"
   cy="371.2"
   r="2.9"
   id="circle1090" />
		<circle
   class="st2"
   cx="301.4"
   cy="371.2"
   r="2.9"
   id="circle1092" />
		<circle
   class="st2"
   cx="310.3"
   cy="371.2"
   r="2.9"
   id="circle1094" />
		<circle
   class="st2"
   cx="319.1"
   cy="371.2"
   r="2.9"
   id="circle1096" />
		<circle
   class="st2"
   cx="328"
   cy="371.2"
   r="2.9"
   id="circle1098" />
		<circle
   class="st2"
   cx="336.9"
   cy="371.2"
   r="2.9"
   id="circle1100" />
		<circle
   class="st2"
   cx="345.8"
   cy="371.2"
   r="2.9"
   id="circle1102" />
		<circle
   class="st2"
   cx="354.6"
   cy="371.2"
   r="2.9"
   id="circle1104" />
		<circle
   class="st2"
   cx="363.5"
   cy="371.2"
   r="2.9"
   id="circle1106" />
		<circle
   class="st2"
   cx="372.4"
   cy="371.2"
   r="2.9"
   id="circle1108" />
		<circle
   class="st2"
   cx="381.3"
   cy="371.2"
   r="2.9"
   id="circle1110" />
		<circle
   class="st2"
   cx="390.1"
   cy="371.2"
   r="2.9"
   id="circle1112" />
		<circle
   class="st2"
   cx="399"
   cy="371.2"
   r="2.9"
   id="circle1114" />
		<circle
   class="st2"
   cx="407.9"
   cy="371.2"
   r="2.9"
   id="circle1116" />
		<circle
   class="st2"
   cx="416.8"
   cy="371.2"
   r="2.9"
   id="circle1118" />
		<circle
   class="st2"
   cx="425.7"
   cy="371.2"
   r="2.9"
   id="circle1120" />
		<circle
   class="st2"
   cx="434.5"
   cy="371.2"
   r="2.9"
   id="circle1122" />
		<circle
   class="st2"
   cx="443.4"
   cy="371.2"
   r="2.9"
   id="circle1124" />
		<circle
   class="st2"
   cx="452.3"
   cy="371.2"
   r="2.9"
   id="circle1126" />
		<circle
   class="st2"
   cx="461.2"
   cy="371.2"
   r="2.9"
   id="circle1128" />
		<circle
   class="st2"
   cx="470"
   cy="371.2"
   r="2.9"
   id="circle1130" />
		<circle
   class="st2"
   cx="478.9"
   cy="371.2"
   r="2.9"
   id="circle1132" />
		<circle
   class="st2"
   cx="487.8"
   cy="371.2"
   r="2.9"
   id="circle1134" />
		<circle
   class="st2"
   cx="279.1"
   cy="378.8"
   r="2.9"
   id="circle1136" />
		<circle
   class="st2"
   cx="288"
   cy="378.8"
   r="2.9"
   id="circle1138" />
		<circle
   class="st2"
   cx="296.9"
   cy="378.8"
   r="2.9"
   id="circle1140" />
		<circle
   class="st2"
   cx="305.8"
   cy="378.8"
   r="2.9"
   id="circle1142" />
		<circle
   class="st2"
   cx="314.6"
   cy="378.8"
   r="2.9"
   id="circle1144" />
		<circle
   class="st2"
   cx="323.5"
   cy="378.8"
   r="2.9"
   id="circle1146" />
		<circle
   class="st2"
   cx="332.4"
   cy="378.8"
   r="2.9"
   id="circle1148" />
		<circle
   class="st2"
   cx="341.3"
   cy="378.8"
   r="2.9"
   id="circle1150" />
		<circle
   class="st2"
   cx="350.2"
   cy="378.7"
   r="2.9"
   id="circle1152" />
		<circle
   class="st2"
   cx="359"
   cy="378.7"
   r="2.9"
   id="circle1154" />
		<circle
   class="st2"
   cx="367.9"
   cy="378.7"
   r="2.9"
   id="circle1156" />
		<circle
   class="st2"
   cx="376.8"
   cy="378.7"
   r="2.9"
   id="circle1158" />
		<circle
   class="st2"
   cx="385.7"
   cy="378.7"
   r="2.9"
   id="circle1160" />
		<circle
   class="st2"
   cx="394.5"
   cy="378.7"
   r="2.9"
   id="circle1162" />
		<circle
   class="st2"
   cx="403.4"
   cy="378.7"
   r="2.9"
   id="circle1164" />
		<circle
   class="st2"
   cx="412.3"
   cy="378.7"
   r="2.9"
   id="circle1166" />
		<circle
   class="st2"
   cx="421.2"
   cy="378.7"
   r="2.9"
   id="circle1168" />
		<circle
   class="st2"
   cx="430"
   cy="378.7"
   r="2.9"
   id="circle1170" />
		<circle
   class="st2"
   cx="438.9"
   cy="378.7"
   r="2.9"
   id="circle1172" />
		<circle
   class="st2"
   cx="447.8"
   cy="378.7"
   r="2.9"
   id="circle1174" />
		<circle
   class="st2"
   cx="456.7"
   cy="378.7"
   r="2.9"
   id="circle1176" />
		<circle
   class="st2"
   cx="465.5"
   cy="378.7"
   r="2.9"
   id="circle1178" />
		<circle
   class="st2"
   cx="474.4"
   cy="378.7"
   r="2.9"
   id="circle1180" />
		<circle
   class="st2"
   cx="483.3"
   cy="378.7"
   r="2.9"
   id="circle1182" />
		<circle
   class="st2"
   cx="492.2"
   cy="378.7"
   r="2.9"
   id="circle1184" />
	</g>
	<g
   class="st9"
   id="g1204">
		<circle
   class="st2"
   cx="496.2"
   cy="356.1"
   r="2.9"
   id="circle1188" />
		<circle
   class="st2"
   cx="505.1"
   cy="356.1"
   r="2.9"
   id="circle1190" />
		<circle
   class="st2"
   cx="513.9"
   cy="356.1"
   r="2.9"
   id="circle1192" />
		<circle
   class="st2"
   cx="522.8"
   cy="356.1"
   r="2.9"
   id="circle1194" />
		<circle
   class="st2"
   cx="496.2"
   cy="371.2"
   r="2.9"
   id="circle1196" />
		<circle
   class="st2"
   cx="500.6"
   cy="378.8"
   r="2.9"
   id="circle1198" />
		<circle
   class="st2"
   cx="509.4"
   cy="378.8"
   r="2.9"
   id="circle1200" />
		<circle
   class="st2"
   cx="518.3"
   cy="378.8"
   r="2.9"
   id="circle1202" />
	</g>
</g>
<g
   class="st8"
   id="g1346">
	<g
   class="st9"
   id="g1332">
		<circle
   class="st2"
   cx="712.8"
   cy="49.9"
   r="2.9"
   id="circle1208" />
		<circle
   class="st2"
   cx="703.9"
   cy="49.9"
   r="2.9"
   id="circle1210" />
		<circle
   class="st2"
   cx="695.1"
   cy="49.9"
   r="2.9"
   id="circle1212" />
		<circle
   class="st2"
   cx="686.2"
   cy="49.9"
   r="2.9"
   id="circle1214" />
		<circle
   class="st2"
   cx="677.3"
   cy="49.9"
   r="2.9"
   id="circle1216" />
		<circle
   class="st2"
   cx="668.4"
   cy="49.9"
   r="2.9"
   id="circle1218" />
		<circle
   class="st2"
   cx="659.5"
   cy="49.9"
   r="2.9"
   id="circle1220" />
		<circle
   class="st2"
   cx="712.8"
   cy="35.4"
   r="2.9"
   id="circle1222" />
		<circle
   class="st2"
   cx="703.9"
   cy="35.4"
   r="2.9"
   id="circle1224" />
		<circle
   class="st2"
   cx="695.1"
   cy="35.4"
   r="2.9"
   id="circle1226" />
		<circle
   class="st2"
   cx="686.2"
   cy="35.4"
   r="2.9"
   id="circle1228" />
		<circle
   class="st2"
   cx="677.3"
   cy="35.4"
   r="2.9"
   id="circle1230" />
		<circle
   class="st2"
   cx="668.4"
   cy="35.4"
   r="2.9"
   id="circle1232" />
		<circle
   class="st2"
   cx="659.5"
   cy="35.4"
   r="2.9"
   id="circle1234" />
		<circle
   class="st2"
   cx="708.3"
   cy="42.4"
   r="2.9"
   id="circle1236" />
		<circle
   class="st2"
   cx="699.4"
   cy="42.4"
   r="2.9"
   id="circle1238" />
		<circle
   class="st2"
   cx="690.6"
   cy="42.4"
   r="2.9"
   id="circle1240" />
		<circle
   class="st2"
   cx="681.7"
   cy="42.4"
   r="2.9"
   id="circle1242" />
		<circle
   class="st2"
   cx="672.8"
   cy="42.4"
   r="2.9"
   id="circle1244" />
		<circle
   class="st2"
   cx="663.9"
   cy="42.4"
   r="2.9"
   id="circle1246" />
		<circle
   class="st2"
   cx="655.1"
   cy="42.4"
   r="2.9"
   id="circle1248" />
		<circle
   class="st2"
   cx="646.2"
   cy="42.4"
   r="2.9"
   id="circle1250" />
		<circle
   class="st2"
   cx="637.3"
   cy="42.4"
   r="2.9"
   id="circle1252" />
		<circle
   class="st2"
   cx="699.4"
   cy="27.3"
   r="2.9"
   id="circle1254" />
		<circle
   class="st2"
   cx="690.6"
   cy="27.3"
   r="2.9"
   id="circle1256" />
		<circle
   class="st2"
   cx="681.7"
   cy="27.3"
   r="2.9"
   id="circle1258" />
		<circle
   class="st2"
   cx="672.8"
   cy="27.3"
   r="2.9"
   id="circle1260" />
		<circle
   class="st2"
   cx="663.9"
   cy="27.3"
   r="2.9"
   id="circle1262" />
		<circle
   class="st2"
   cx="655.1"
   cy="27.3"
   r="2.9"
   id="circle1264" />
		<circle
   class="st2"
   cx="646.2"
   cy="27.3"
   r="2.9"
   id="circle1266" />
		<circle
   class="st2"
   cx="637.3"
   cy="27.3"
   r="2.9"
   id="circle1268" />
		<circle
   class="st2"
   cx="628.4"
   cy="27.3"
   r="2.9"
   id="circle1270" />
		<circle
   class="st2"
   cx="721.7"
   cy="19.7"
   r="2.9"
   id="circle1272" />
		<circle
   class="st2"
   cx="712.8"
   cy="19.7"
   r="2.9"
   id="circle1274" />
		<circle
   class="st2"
   cx="703.9"
   cy="19.7"
   r="2.9"
   id="circle1276" />
		<circle
   class="st2"
   cx="695.1"
   cy="19.7"
   r="2.9"
   id="circle1278" />
		<circle
   class="st2"
   cx="686.2"
   cy="19.7"
   r="2.9"
   id="circle1280" />
		<circle
   class="st2"
   cx="677.3"
   cy="19.7"
   r="2.9"
   id="circle1282" />
		<circle
   class="st2"
   cx="668.4"
   cy="19.7"
   r="2.9"
   id="circle1284" />
		<circle
   class="st2"
   cx="659.5"
   cy="19.7"
   r="2.9"
   id="circle1286" />
		<circle
   class="st2"
   cx="650.7"
   cy="19.7"
   r="2.9"
   id="circle1288" />
		<circle
   class="st2"
   cx="650.7"
   cy="35.4"
   r="2.9"
   id="circle1290" />
		<circle
   class="st2"
   cx="743.8"
   cy="12.1"
   r="2.9"
   id="circle1292" />
		<circle
   class="st2"
   cx="734.9"
   cy="12.1"
   r="2.9"
   id="circle1294" />
		<circle
   class="st2"
   cx="726.1"
   cy="12.1"
   r="2.9"
   id="circle1296" />
		<circle
   class="st2"
   cx="717.2"
   cy="12.1"
   r="2.9"
   id="circle1298" />
		<circle
   class="st2"
   cx="708.3"
   cy="12.1"
   r="2.9"
   id="circle1300" />
		<circle
   class="st2"
   cx="699.4"
   cy="12.1"
   r="2.9"
   id="circle1302" />
		<circle
   class="st2"
   cx="690.6"
   cy="12.1"
   r="2.9"
   id="circle1304" />
		<circle
   class="st2"
   cx="681.7"
   cy="12.1"
   r="2.9"
   id="circle1306" />
		<circle
   class="st2"
   cx="672.8"
   cy="12.1"
   r="2.9"
   id="circle1308" />
		<circle
   class="st2"
   cx="663.9"
   cy="12.1"
   r="2.9"
   id="circle1310" />
		<circle
   class="st2"
   cx="655.1"
   cy="12.1"
   r="2.9"
   id="circle1312" />
		<circle
   class="st2"
   cx="646.2"
   cy="12.1"
   r="2.9"
   id="circle1314" />
		<circle
   class="st2"
   cx="637.3"
   cy="12.1"
   r="2.9"
   id="circle1316" />
		<circle
   class="st2"
   cx="628.4"
   cy="12.1"
   r="2.9"
   id="circle1318" />
		<circle
   class="st2"
   cx="739.4"
   cy="4.6"
   r="2.9"
   id="circle1320" />
		<circle
   class="st2"
   cx="730.6"
   cy="4.6"
   r="2.9"
   id="circle1322" />
		<circle
   class="st2"
   cx="721.7"
   cy="4.6"
   r="2.9"
   id="circle1324" />
		<circle
   class="st2"
   cx="712.8"
   cy="4.6"
   r="2.9"
   id="circle1326" />
		<circle
   class="st2"
   cx="703.9"
   cy="4.6"
   r="2.9"
   id="circle1328" />
		<circle
   class="st2"
   cx="695.1"
   cy="4.6"
   r="2.9"
   id="circle1330" />
	</g>
	<g
   class="st9"
   id="g1344">
		<circle
   class="st2"
   cx="641.8"
   cy="35.4"
   r="2.9"
   id="circle1334" />
		<circle
   class="st2"
   cx="632.9"
   cy="35.4"
   r="2.9"
   id="circle1336" />
		<circle
   class="st2"
   cx="624"
   cy="35.4"
   r="2.9"
   id="circle1338" />
		<circle
   class="st2"
   cx="620"
   cy="12.1"
   r="2.9"
   id="circle1340" />
		<circle
   class="st2"
   cx="611.2"
   cy="12.1"
   r="2.9"
   id="circle1342" />
	</g>
</g>
<rect
   x="-13.4"
   y="-9"
   class="st4"
   width="1010.6"
   height="408"
   id="rect1348" />
<g
   id="g1380"
   transform="translate(0,4)">
	<g
   id="g1378">
		<path
   class="st5"
   d="m 222.6,101 h 22.2 v 49.6 h 28.5 v 16.9 h -50.7 z"
   id="path1350" />
		<path
   class="st5"
   d="m 281,101 h 22.2 v 66.6 H 281 Z"
   id="path1352" />
		<path
   class="st5"
   d="M 310.3,101 H 329 l 21.9,30.7 V 101 h 22.2 v 66.6 H 354.2 L 332.6,137 v 30.6 H 310.4 V 101 Z"
   id="path1354" />
		<path
   class="st5"
   d="m 395.9,165.5 c -4.9,-2.1 -8.7,-5.1 -11.4,-9.2 -2.8,-4.1 -4.1,-9 -4.1,-14.7 V 101 h 22.2 v 38 c 0,7.2 3.4,10.7 10.1,10.7 6.8,0 10.1,-3.6 10.1,-10.7 V 101 H 445 v 40.6 c 0,5.7 -1.4,10.6 -4.1,14.7 -2.8,4.1 -6.6,7.1 -11.4,9.2 -4.9,2.1 -10.5,3.1 -16.8,3.1 -6.3,0 -11.9,-1 -16.8,-3.1 z"
   id="path1356" />
		<path
   class="st5"
   d="M 472.8,133.9 449.1,101 h 23.1 l 12.2,17.5 12.3,-17.5 h 23.1 l -23.7,32.9 24.6,33.7 h -23.5 l -12.9,-18.1 -12.8,18.1 H 448 Z"
   id="path1358" />
		<path
   class="st5"
   d="m 587,101 h 23.3 l 25.6,66.6 h -23.1 l -5.2,-13.2 h -17.9 l -5.1,13.2 h -23.1 z m 17.9,37.8 -6.3,-16.1 -6.2,16.1 z"
   id="path1360" />
		<path
   class="st5"
   d="m 640.7,101 h 35.9 c 5.4,0 9.9,1.1 13.6,3.4 3.7,2.2 6.4,5.3 8.3,9 1.8,3.8 2.7,8.1 2.7,12.8 0,4.8 -1,9 -3.1,12.8 -2.1,3.8 -5,6.8 -8.8,8.9 -3.8,2.2 -8.2,3.3 -13.1,3.3 H 663 v 16.3 H 640.8 V 101 Z m 30.3,33 c 2.4,0 4.3,-0.7 5.6,-2.1 1.3,-1.4 2,-3.3 2,-5.7 0,-2.5 -0.6,-4.5 -1.8,-5.9 -1.2,-1.4 -3,-2.1 -5.4,-2.1 H 663 V 134 Z"
   id="path1362" />
		<path
   class="st5"
   d="m 705,101 h 35.9 c 5.4,0 9.9,1.1 13.6,3.4 3.7,2.2 6.4,5.3 8.3,9 1.8,3.8 2.7,8.1 2.7,12.8 0,4.8 -1,9 -3.1,12.8 -2.1,3.8 -5,6.8 -8.8,8.9 -3.8,2.2 -8.2,3.3 -13.1,3.3 h -13.2 v 16.3 H 705 Z m 30.3,33 c 2.4,0 4.3,-0.7 5.6,-2.1 1.3,-1.4 2,-3.3 2,-5.7 0,-2.5 -0.6,-4.5 -1.8,-5.9 -1.2,-1.4 -3,-2.1 -5.4,-2.1 h -8.5 V 134 Z"
   id="path1364" />
		<path
   class="st5"
   d="m 316.5,264 c -4.2,-0.8 -7.7,-1.8 -10.6,-3.2 v -17.4 c 3.2,1.5 6.8,2.8 10.7,3.7 3.9,1 7.5,1.4 10.6,1.4 2.9,0 5,-0.3 6.5,-0.9 1.4,-0.6 2.1,-1.6 2.1,-3 0,-1.3 -0.7,-2.3 -2,-3 -1.3,-0.7 -3.8,-1.7 -7.3,-2.8 -1,-0.3 -2.3,-0.7 -3.9,-1.2 -4.5,-1.5 -8,-3.2 -10.4,-4.9 -2.4,-1.7 -4.3,-3.9 -5.4,-6.4 -1.1,-2.5 -1.7,-5.6 -1.7,-9.3 0,-13.6 9.5,-20.5 28.4,-20.5 3.4,0 7.1,0.3 11.2,0.9 4.1,0.6 7.5,1.3 10.2,2.2 v 17.5 c -6.4,-2.5 -12.3,-3.8 -17.7,-3.8 -3,0 -5.3,0.2 -7,0.7 -1.7,0.5 -2.5,1.4 -2.5,2.8 0,0.9 0.4,1.6 1.1,2.2 0.7,0.6 1.8,1 3.1,1.4 1.3,0.4 3.7,1.1 7.1,2 5.3,1.4 9.4,3.2 12.2,5.3 2.8,2.1 4.8,4.4 5.8,7.1 1,2.7 1.5,6 1.5,9.8 0,6.3 -2.5,11.4 -7.4,15 -4.9,3.7 -12.1,5.5 -21.5,5.5 -4.5,0 -8.9,-0.4 -13.1,-1.1 z"
   id="path1366" />
		<path
   class="st5"
   d="m 378.4,262 c -4.9,-2.1 -8.7,-5.1 -11.4,-9.2 -2.8,-4.1 -4.1,-9 -4.1,-14.7 V 197.5 H 385 v 38 c 0,7.2 3.4,10.7 10.1,10.7 6.8,0 10.1,-3.6 10.1,-10.7 v -38 h 22.2 v 40.6 c 0,5.7 -1.4,10.6 -4.1,14.7 -2.8,4.1 -6.6,7.1 -11.4,9.2 -4.9,2.1 -10.5,3.1 -16.8,3.1 -6.3,0 -11.9,-1 -16.7,-3.1 z"
   id="path1368" />
		<path
   class="st5"
   d="m 434.6,197.5 h 21.3 l 15.1,30.7 14.9,-30.7 h 21.3 v 66.6 H 485 v -28.3 l -8.3,16.9 h -11.6 l -8.3,-16.9 v 28.3 h -22.2 z"
   id="path1370" />
		<path
   class="st5"
   d="m 514.4,197.5 h 21.3 l 15.1,30.7 14.9,-30.7 H 587 v 66.6 h -22.2 v -28.3 l -8.3,16.9 h -11.6 l -8.3,-16.9 v 28.3 h -22.2 z"
   id="path1372" />
		<path
   class="st5"
   d="m 594.6,197.5 h 22.2 v 66.6 h -22.2 z"
   id="path1374" />
		<path
   class="st5"
   d="m 640.7,213.8 h -17.8 v -16.2 h 57.9 v 16.2 h -17.9 v 50.3 h -22.2 z"
   id="path1376" />
	</g>
</g>

</svg>
